module mycompose

go 1.20

replace (
	github.com/cucumber/godog => github.com/laurazard/godog v0.0.0-20220922095256-4c4b17abdae7

	// For k8s dependencies, we use a replace directive, to prevent them being
	// upgraded to the version specified in containerd, which is not relevant to the
	// version needed.
	// See https://github.com/docker/buildx/pull/948 for details.
	// https://github.com/docker/buildx/blob/v0.8.1/go.mod#L62-L64
	k8s.io/api => k8s.io/api v0.22.4
	k8s.io/apimachinery => k8s.io/apimachinery v0.22.4
	k8s.io/client-go => k8s.io/client-go v0.22.4
)

require github.com/docker/docker v23.0.1+incompatible

require (
	cloud.google.com/go/compute v1.18.0 // indirect
	github.com/google/go-cmp v0.5.9 // indirect
	github.com/googleapis/gnostic v0.5.5 // indirect
)

require (
	github.com/AlecAivazis/survey/v2 v2.3.6 // indirect
	github.com/Azure/go-ansiterm v0.0.0-20210617225240-d185dfc1b5a1 // indirect
	github.com/Microsoft/go-winio v0.5.2 // indirect
	github.com/aws/aws-sdk-go-v2 v1.16.3 // indirect
	github.com/aws/aws-sdk-go-v2/config v1.15.5 // indirect
	github.com/aws/aws-sdk-go-v2/credentials v1.12.0 // indirect
	github.com/aws/aws-sdk-go-v2/feature/ec2/imds v1.12.4 // indirect
	github.com/aws/aws-sdk-go-v2/internal/configsources v1.1.10 // indirect
	github.com/aws/aws-sdk-go-v2/internal/endpoints/v2 v2.4.4 // indirect
	github.com/aws/aws-sdk-go-v2/internal/ini v1.3.11 // indirect
	github.com/aws/aws-sdk-go-v2/service/internal/presigned-url v1.9.4 // indirect
	github.com/aws/aws-sdk-go-v2/service/sso v1.11.4 // indirect
	github.com/aws/aws-sdk-go-v2/service/sts v1.16.4 // indirect
	github.com/aws/smithy-go v1.11.2 // indirect
	github.com/beorn7/perks v1.0.1 // indirect
	github.com/buger/goterm v1.0.4 // indirect
	github.com/cenkalti/backoff/v4 v4.2.0 // indirect
	github.com/cespare/xxhash/v2 v2.2.0 // indirect
	github.com/compose-spec/compose-go v1.12.0 // indirect
	github.com/containerd/console v1.0.3 // indirect
	github.com/containerd/containerd v1.6.19 // indirect
	github.com/containerd/continuity v0.3.0 // indirect
	github.com/containerd/ttrpc v1.1.0 // indirect
	github.com/containerd/typeurl v1.0.2 // indirect
	github.com/cpuguy83/dockercfg v0.3.1 // indirect
	github.com/davecgh/go-spew v1.1.1 // indirect
	github.com/distribution/distribution/v3 v3.0.0-20230214150026-36d8c594d7aa // indirect
	github.com/docker/buildx v0.10.2 // indirect
	github.com/docker/cli v23.0.1+incompatible // indirect
	github.com/docker/compose/v2 v2.16.0 // indirect
	github.com/docker/distribution v2.8.1+incompatible // indirect
	github.com/docker/docker-credential-helpers v0.7.0 // indirect
	github.com/docker/go v1.5.1-1.0.20160303222718-d30aec9fd63c // indirect
	github.com/docker/go-connections v0.4.0 // indirect
	github.com/docker/go-metrics v0.0.1 // indirect
	github.com/docker/go-units v0.5.0 // indirect
	github.com/felixge/httpsnoop v1.0.2 // indirect
	github.com/fvbommel/sortorder v1.0.2 // indirect
	github.com/go-logr/logr v1.2.3 // indirect
	github.com/go-logr/stdr v1.2.2 // indirect
	github.com/gofrs/flock v0.8.1 // indirect
	github.com/gogo/googleapis v1.4.1 // indirect
	github.com/gogo/protobuf v1.3.2 // indirect
	github.com/golang/mock v1.6.0 // indirect
	github.com/golang/protobuf v1.5.2 // indirect
	github.com/google/gofuzz v1.2.0 // indirect
	github.com/google/shlex v0.0.0-20191202100458-e7afc7fbc510 // indirect
	github.com/google/uuid v1.3.0 // indirect
	github.com/gorilla/mux v1.8.0 // indirect
	github.com/grpc-ecosystem/go-grpc-middleware v1.3.0 // indirect
	github.com/grpc-ecosystem/grpc-gateway v1.16.0 // indirect
	github.com/hashicorp/errwrap v1.1.0 // indirect
	github.com/hashicorp/go-multierror v1.1.1 // indirect
	github.com/hashicorp/go-version v1.6.0 // indirect
	github.com/imdario/mergo v0.3.13 // indirect
	github.com/inconshreveable/mousetrap v1.0.1 // indirect
	github.com/jonboulle/clockwork v0.3.1-0.20230117163003-a89700cec744 // indirect
	github.com/json-iterator/go v1.1.12 // indirect
	github.com/kballard/go-shellquote v0.0.0-20180428030007-95032a82bc51 // indirect
	github.com/klauspost/compress v1.15.12 // indirect
	github.com/magiconair/properties v1.8.7 // indirect
	github.com/mattn/go-colorable v0.1.12 // indirect
	github.com/mattn/go-isatty v0.0.16 // indirect
	github.com/mattn/go-runewidth v0.0.14 // indirect
	github.com/mattn/go-shellwords v1.0.12 // indirect
	github.com/matttproud/golang_protobuf_extensions v1.0.4 // indirect
	github.com/mgutz/ansi v0.0.0-20170206155736-9520e82c474b // indirect
	github.com/miekg/pkcs11 v1.1.1 // indirect
	github.com/mitchellh/mapstructure v1.5.0 // indirect
	github.com/moby/buildkit v0.11.4 // indirect
	github.com/moby/locker v1.0.1 // indirect
	github.com/moby/patternmatcher v0.5.0 // indirect
	github.com/moby/spdystream v0.2.0 // indirect
	github.com/moby/sys/mountinfo v0.6.2 // indirect
	github.com/moby/sys/sequential v0.5.0 // indirect
	github.com/moby/sys/signal v0.7.0 // indirect
	github.com/moby/sys/symlink v0.2.0 // indirect
	github.com/moby/term v0.0.0-20221205130635-1aeaba878587 // indirect
	github.com/modern-go/concurrent v0.0.0-20180306012644-bacd9c7ef1dd // indirect
	github.com/modern-go/reflect2 v1.0.2 // indirect
	github.com/morikuni/aec v1.0.0 // indirect
	github.com/opencontainers/go-digest v1.0.0 // indirect
	github.com/opencontainers/image-spec v1.1.0-rc2 // indirect
	github.com/opencontainers/runc v1.1.3 // indirect
	github.com/pelletier/go-toml v1.9.5 // indirect
	github.com/pkg/errors v0.9.1 // indirect
	github.com/pmezard/go-difflib v1.0.0 // indirect
	github.com/prometheus/client_golang v1.14.0 // indirect
	github.com/prometheus/client_model v0.3.0 // indirect
	github.com/prometheus/common v0.37.0 // indirect
	github.com/prometheus/procfs v0.8.0 // indirect
	github.com/rivo/uniseg v0.2.0 // indirect
	github.com/serialx/hashring v0.0.0-20190422032157-8b2912629002 // indirect
	github.com/sirupsen/logrus v1.9.0 // indirect
	github.com/spf13/cobra v1.6.1 // indirect
	github.com/spf13/pflag v1.0.5 // indirect
	github.com/stretchr/testify v1.8.2 // indirect
	github.com/testcontainers/testcontainers-go v0.19.0 // indirect
	github.com/testcontainers/testcontainers-go/modules/compose v0.19.0
	github.com/theupdateframework/notary v0.7.0 // indirect
	github.com/tilt-dev/fsnotify v1.4.8-0.20220602155310-fff9c274a375 // indirect
	github.com/tonistiigi/fsutil v0.0.0-20230105215944-fb433841cbfa // indirect
	github.com/tonistiigi/units v0.0.0-20180711220420-6950e57a87ea // indirect
	github.com/tonistiigi/vt100 v0.0.0-20210615222946-8066bb97264f // indirect
	github.com/xeipuuv/gojsonpointer v0.0.0-20190905194746-02993c407bfb // indirect
	github.com/xeipuuv/gojsonreference v0.0.0-20180127040603-bd5ef7bd5415 // indirect
	github.com/xeipuuv/gojsonschema v1.2.0 // indirect
	go.opentelemetry.io/contrib/instrumentation/google.golang.org/grpc/otelgrpc v0.29.0 // indirect
	go.opentelemetry.io/contrib/instrumentation/net/http/httptrace/otelhttptrace v0.29.0 // indirect
	go.opentelemetry.io/contrib/instrumentation/net/http/otelhttp v0.29.0 // indirect
	go.opentelemetry.io/otel v1.13.0 // indirect
	go.opentelemetry.io/otel/exporters/otlp/internal/retry v1.4.1 // indirect
	go.opentelemetry.io/otel/exporters/otlp/otlptrace v1.4.1 // indirect
	go.opentelemetry.io/otel/exporters/otlp/otlptrace/otlptracegrpc v1.4.1 // indirect
	go.opentelemetry.io/otel/exporters/otlp/otlptrace/otlptracehttp v1.4.1 // indirect
	go.opentelemetry.io/otel/internal/metric v0.27.0 // indirect
	go.opentelemetry.io/otel/metric v0.27.0 // indirect
	go.opentelemetry.io/otel/sdk v1.4.1 // indirect
	go.opentelemetry.io/otel/trace v1.13.0 // indirect
	go.opentelemetry.io/proto/otlp v0.12.0 // indirect
	golang.org/x/crypto v0.2.0 // indirect
	golang.org/x/net v0.8.0 // indirect
	golang.org/x/oauth2 v0.5.0 // indirect
	golang.org/x/sync v0.1.0 // indirect
	golang.org/x/sys v0.6.0 // indirect
	golang.org/x/term v0.6.0 // indirect
	golang.org/x/text v0.8.0 // indirect
	golang.org/x/time v0.1.0 // indirect
	google.golang.org/appengine v1.6.7 // indirect
	google.golang.org/genproto v0.0.0-20230209215440-0dfe4f8abfcc // indirect
	google.golang.org/grpc v1.53.0 // indirect
	google.golang.org/protobuf v1.28.1 // indirect
	gopkg.in/inf.v0 v0.9.1 // indirect
	gopkg.in/yaml.v2 v2.4.0 // indirect
	gopkg.in/yaml.v3 v3.0.1 // indirect
	k8s.io/api v0.24.1 // indirect
	k8s.io/apimachinery v0.24.1 // indirect
	k8s.io/client-go v0.24.1 // indirect
	k8s.io/klog/v2 v2.60.1 // indirect
	k8s.io/utils v0.0.0-20220210201930-3a6ce19ff2f9 // indirect
	sigs.k8s.io/structured-merge-diff/v4 v4.2.1 // indirect
	sigs.k8s.io/yaml v1.2.0 // indirect
)
